EESchema Schematic File Version 4
EELAYER 30 0
EELAYER END
$Descr A4 11693 8268
encoding utf-8
Sheet 1 1
Title ""
Date ""
Rev ""
Comp ""
Comment1 ""
Comment2 ""
Comment3 ""
Comment4 ""
$EndDescr
$Comp
L Device:Q_NMOS_GDS Q1
U 1 1 5F64650F
P 5850 3650
F 0 "Q1" H 6054 3696 50  0000 L CNN
F 1 "IRF840" H 6054 3605 50  0000 L CNN
F 2 "Package_TO_SOT_THT:TO-220-3_Vertical" H 6050 3750 50  0001 C CNN
F 3 "~" H 5850 3650 50  0001 C CNN
	1    5850 3650
	1    0    0    -1  
$EndComp
$Comp
L Device:R R8
U 1 1 5F646986
P 5950 4400
F 0 "R8" H 6020 4446 50  0000 L CNN
F 1 "0.22/3W" H 6020 4355 50  0000 L CNN
F 2 "Resistor_THT:R_Axial_DIN0309_L9.0mm_D3.2mm_P12.70mm_Horizontal" V 5880 4400 50  0001 C CNN
F 3 "~" H 5950 4400 50  0001 C CNN
	1    5950 4400
	1    0    0    -1  
$EndComp
$Comp
L Device:R R1
U 1 1 5F647313
P 2750 4400
F 0 "R1" H 2820 4446 50  0000 L CNN
F 1 "33k" H 2820 4355 50  0000 L CNN
F 2 "Resistor_THT:R_Axial_DIN0204_L3.6mm_D1.6mm_P5.08mm_Horizontal" V 2680 4400 50  0001 C CNN
F 3 "~" H 2750 4400 50  0001 C CNN
	1    2750 4400
	1    0    0    -1  
$EndComp
$Comp
L Device:R R4
U 1 1 5F647832
P 5000 3650
F 0 "R4" V 4793 3650 50  0000 C CNN
F 1 "22" V 4884 3650 50  0000 C CNN
F 2 "Resistor_THT:R_Axial_DIN0204_L3.6mm_D1.6mm_P5.08mm_Horizontal" V 4930 3650 50  0001 C CNN
F 3 "~" H 5000 3650 50  0001 C CNN
	1    5000 3650
	0    1    1    0   
$EndComp
$Comp
L Device:R R5
U 1 1 5F647DEE
P 5350 4400
F 0 "R5" H 5280 4354 50  0000 R CNN
F 1 "22k" H 5280 4445 50  0000 R CNN
F 2 "Resistor_SMD:R_1206_3216Metric" V 5280 4400 50  0001 C CNN
F 3 "~" H 5350 4400 50  0001 C CNN
	1    5350 4400
	-1   0    0    1   
$EndComp
Wire Wire Line
	5150 3650 5350 3650
Wire Wire Line
	5350 3650 5350 4250
Wire Wire Line
	5650 3650 5350 3650
Connection ~ 5350 3650
Wire Wire Line
	4200 3650 4850 3650
$Comp
L Device:C_Small C5
U 1 1 5F64A79D
P 4850 4400
F 0 "C5" H 4942 4446 50  0000 L CNN
F 1 "100p" H 4942 4355 50  0000 L CNN
F 2 "Capacitor_THT:C_Disc_D4.3mm_W1.9mm_P5.00mm" H 4850 4400 50  0001 C CNN
F 3 "~" H 4850 4400 50  0001 C CNN
	1    4850 4400
	1    0    0    -1  
$EndComp
$Comp
L power:GNDA #PWR0101
U 1 1 5F64AE81
P 3750 4800
F 0 "#PWR0101" H 3750 4550 50  0001 C CNN
F 1 "GNDA" H 3755 4627 50  0000 C CNN
F 2 "" H 3750 4800 50  0001 C CNN
F 3 "" H 3750 4800 50  0001 C CNN
	1    3750 4800
	1    0    0    -1  
$EndComp
$Comp
L Device:R R3
U 1 1 5F64B70E
P 5100 4100
F 0 "R3" V 4893 4100 50  0000 C CNN
F 1 "R" V 4984 4100 50  0000 C CNN
F 2 "Resistor_THT:R_Axial_DIN0204_L3.6mm_D1.6mm_P5.08mm_Horizontal" V 5030 4100 50  0001 C CNN
F 3 "~" H 5100 4100 50  0001 C CNN
	1    5100 4100
	0    1    1    0   
$EndComp
Wire Wire Line
	5950 4250 5950 4100
Wire Wire Line
	5250 4100 5950 4100
Connection ~ 5950 4100
Wire Wire Line
	5950 4100 5950 3850
Wire Wire Line
	3750 4800 3750 4700
Wire Wire Line
	2750 4250 2750 3950
Wire Wire Line
	2750 3950 3250 3950
Wire Wire Line
	2750 4550 2750 4700
Wire Wire Line
	2750 4700 3750 4700
Connection ~ 3750 4700
$Comp
L My_Library:ETD29 TR1
U 1 1 5F64FAA0
P 6750 2500
F 0 "TR1" H 6750 3025 50  0000 C CNN
F 1 "ETD29" H 6750 2934 50  0000 C CNN
F 2 "MyLibrary:ETD29_Horizontal" H 6650 2800 50  0001 C CNN
F 3 "" H 6650 2800 50  0001 C CNN
	1    6750 2500
	1    0    0    -1  
$EndComp
$Comp
L Device:CP C4
U 1 1 5F650A6B
P 3450 1700
F 0 "C4" H 3568 1746 50  0000 L CNN
F 1 "100u/400V" H 3568 1655 50  0000 L CNN
F 2 "Capacitor_THT:CP_Radial_D18.0mm_P7.50mm" H 3488 1550 50  0001 C CNN
F 3 "~" H 3450 1700 50  0001 C CNN
	1    3450 1700
	1    0    0    -1  
$EndComp
Wire Wire Line
	5950 3450 5950 2400
$Comp
L Device:D_Schottky D3
U 1 1 5F651E86
P 5350 2600
F 0 "D3" H 5350 2817 50  0000 C CNN
F 1 "D_Schottky" H 5350 2726 50  0000 C CNN
F 2 "Diode_THT:D_T-1_P5.08mm_Horizontal" H 5350 2600 50  0001 C CNN
F 3 "~" H 5350 2600 50  0001 C CNN
	1    5350 2600
	1    0    0    -1  
$EndComp
$Comp
L Device:R R7
U 1 1 5F6524F0
P 5650 2600
F 0 "R7" V 5443 2600 50  0000 C CNN
F 1 "4.7" V 5534 2600 50  0000 C CNN
F 2 "Resistor_THT:R_Axial_DIN0204_L3.6mm_D1.6mm_P5.08mm_Horizontal" V 5580 2600 50  0001 C CNN
F 3 "~" H 5650 2600 50  0001 C CNN
	1    5650 2600
	0    1    1    0   
$EndComp
$Comp
L Device:CP_Small C7
U 1 1 5F652F5E
P 5050 2800
F 0 "C7" H 5138 2846 50  0000 L CNN
F 1 "100u" H 5138 2755 50  0000 L CNN
F 2 "Capacitor_THT:CP_Radial_D5.0mm_P2.00mm" H 5050 2800 50  0001 C CNN
F 3 "~" H 5050 2800 50  0001 C CNN
	1    5050 2800
	1    0    0    -1  
$EndComp
Wire Wire Line
	5050 2700 5050 2600
Wire Wire Line
	5050 2600 5200 2600
Connection ~ 5050 2600
$Comp
L power:GNDA #PWR0102
U 1 1 5F65A97E
P 6450 2900
F 0 "#PWR0102" H 6450 2650 50  0001 C CNN
F 1 "GNDA" H 6455 2727 50  0000 C CNN
F 2 "" H 6450 2900 50  0001 C CNN
F 3 "" H 6450 2900 50  0001 C CNN
	1    6450 2900
	1    0    0    -1  
$EndComp
Wire Wire Line
	6450 2900 6450 2800
Wire Wire Line
	6450 2800 6550 2800
$Comp
L power:GNDA #PWR0103
U 1 1 5F65BC99
P 5050 2900
F 0 "#PWR0103" H 5050 2650 50  0001 C CNN
F 1 "GNDA" H 5055 2727 50  0000 C CNN
F 2 "" H 5050 2900 50  0001 C CNN
F 3 "" H 5050 2900 50  0001 C CNN
	1    5050 2900
	1    0    0    -1  
$EndComp
Wire Wire Line
	3750 4350 3750 4700
Wire Wire Line
	5950 4700 5350 4700
Wire Wire Line
	5950 4550 5950 4700
Wire Wire Line
	5350 4550 5350 4700
Connection ~ 5350 4700
$Comp
L Device:C_Small C3
U 1 1 5F65E61C
P 2350 4400
F 0 "C3" H 2442 4446 50  0000 L CNN
F 1 "100n" H 2442 4355 50  0000 L CNN
F 2 "Capacitor_SMD:C_1206_3216Metric_Pad1.42x1.75mm_HandSolder" H 2350 4400 50  0001 C CNN
F 3 "~" H 2350 4400 50  0001 C CNN
	1    2350 4400
	1    0    0    -1  
$EndComp
Wire Wire Line
	2350 4500 2350 4700
Wire Wire Line
	2350 4700 2750 4700
Connection ~ 2750 4700
Wire Wire Line
	3250 3650 2350 3650
Wire Wire Line
	2350 2600 2350 3650
Connection ~ 2350 3650
$Comp
L Device:R R2
U 1 1 5F661878
P 4100 1700
F 0 "R2" H 4170 1746 50  0000 L CNN
F 1 "1.5M" H 4170 1655 50  0000 L CNN
F 2 "Resistor_THT:R_Axial_DIN0204_L3.6mm_D1.6mm_P5.08mm_Horizontal" V 4030 1700 50  0001 C CNN
F 3 "~" H 4100 1700 50  0001 C CNN
	1    4100 1700
	1    0    0    -1  
$EndComp
$Comp
L Isolator:PC817 U2
U 1 1 5F6629F1
P 6500 5250
F 0 "U2" H 6500 5575 50  0000 C CNN
F 1 "PC817" H 6500 5484 50  0000 C CNN
F 2 "Package_DIP:DIP-4_W7.62mm" H 6300 5050 50  0001 L CIN
F 3 "http://www.soselectronic.cz/a_info/resource/d/pc817.pdf" H 6500 5250 50  0001 L CNN
	1    6500 5250
	-1   0    0    -1  
$EndComp
Wire Wire Line
	3100 5150 3100 4100
Wire Wire Line
	3100 4100 3250 4100
$Comp
L power:GNDA #PWR0106
U 1 1 5F6668D8
P 6200 5350
F 0 "#PWR0106" H 6200 5100 50  0001 C CNN
F 1 "GNDA" H 6205 5177 50  0000 C CNN
F 2 "" H 6200 5350 50  0001 C CNN
F 3 "" H 6200 5350 50  0001 C CNN
	1    6200 5350
	1    0    0    -1  
$EndComp
$Comp
L Device:D_Schottky D4
U 1 1 5F667281
P 5950 2150
F 0 "D4" V 5850 1950 50  0000 L CNN
F 1 "UF4007" V 5950 1750 50  0000 L CNN
F 2 "Diode_THT:D_T-1_P5.08mm_Horizontal" H 5950 2150 50  0001 C CNN
F 3 "~" H 5950 2150 50  0001 C CNN
	1    5950 2150
	0    1    1    0   
$EndComp
Wire Wire Line
	5950 2300 5950 2400
Connection ~ 5950 2400
$Comp
L Device:C_Small C9
U 1 1 5F66AAAA
P 5950 1700
F 0 "C9" H 6042 1746 50  0000 L CNN
F 1 "1n/1kV" H 6042 1655 50  0000 L CNN
F 2 "Capacitor_THT:C_Disc_D4.3mm_W1.9mm_P5.00mm" H 5950 1700 50  0001 C CNN
F 3 "~" H 5950 1700 50  0001 C CNN
	1    5950 1700
	1    0    0    -1  
$EndComp
Wire Wire Line
	5950 2000 5950 1950
$Comp
L Device:R R6
U 1 1 5F66BD08
P 5550 1700
F 0 "R6" H 5620 1746 50  0000 L CNN
F 1 "100k/2W" H 5620 1655 50  0000 L CNN
F 2 "Resistor_THT:R_Axial_DIN0411_L9.9mm_D3.6mm_P5.08mm_Vertical" V 5480 1700 50  0001 C CNN
F 3 "~" H 5550 1700 50  0001 C CNN
	1    5550 1700
	1    0    0    -1  
$EndComp
Connection ~ 5950 1950
Wire Wire Line
	5950 1950 5950 1800
Wire Wire Line
	5950 2400 6550 2400
Wire Wire Line
	5800 2600 6550 2600
Wire Wire Line
	6550 2200 6450 2200
Wire Wire Line
	6450 2200 6450 1400
Wire Wire Line
	6450 1400 5950 1400
Wire Wire Line
	5950 1600 5950 1400
Connection ~ 5950 1400
Wire Wire Line
	4100 1550 4100 1400
$Comp
L power:GNDA #PWR0107
U 1 1 5F676521
P 3450 1850
F 0 "#PWR0107" H 3450 1600 50  0001 C CNN
F 1 "GNDA" H 3455 1677 50  0000 C CNN
F 2 "" H 3450 1850 50  0001 C CNN
F 3 "" H 3450 1850 50  0001 C CNN
	1    3450 1850
	1    0    0    -1  
$EndComp
Wire Wire Line
	3450 1550 3450 1400
Connection ~ 4100 1400
Wire Wire Line
	4100 1400 5250 1400
Wire Wire Line
	5550 1950 5550 1850
Wire Wire Line
	5550 1950 5950 1950
Wire Wire Line
	5550 1550 5550 1400
Connection ~ 5550 1400
Wire Wire Line
	5550 1400 5950 1400
$Comp
L Device:R R9
U 1 1 5F64A4D9
P 7200 4800
F 0 "R9" H 7270 4846 50  0000 L CNN
F 1 "470" H 7270 4755 50  0000 L CNN
F 2 "Resistor_THT:R_Axial_DIN0204_L3.6mm_D1.6mm_P5.08mm_Horizontal" V 7130 4800 50  0001 C CNN
F 3 "~" H 7200 4800 50  0001 C CNN
	1    7200 4800
	1    0    0    -1  
$EndComp
$Comp
L Reference_Voltage:TL431LP U3
U 1 1 5F64A4DF
P 7200 5600
F 0 "U3" V 7154 5530 50  0000 R CNN
F 1 "TL431LP" V 7245 5530 50  0000 R CNN
F 2 "Package_TO_SOT_THT:TO-92_Inline_Wide" H 7200 5450 50  0001 C CIN
F 3 "http://www.ti.com/lit/ds/symlink/tl431.pdf" H 7200 5600 50  0001 C CIN
	1    7200 5600
	0    1    -1   0   
$EndComp
Wire Wire Line
	7200 5150 7200 4950
Wire Wire Line
	7200 5500 7200 5350
$Comp
L power:GND #PWR0108
U 1 1 5F64A4E9
P 7200 5750
F 0 "#PWR0108" H 7200 5500 50  0001 C CNN
F 1 "GND" H 7205 5577 50  0000 C CNN
F 2 "" H 7200 5750 50  0001 C CNN
F 3 "" H 7200 5750 50  0001 C CNN
	1    7200 5750
	1    0    0    -1  
$EndComp
Wire Wire Line
	7200 5750 7200 5700
$Comp
L Device:C_Small C11
U 1 1 5F64A4F0
P 8150 5350
F 0 "C11" V 7921 5350 50  0000 C CNN
F 1 "10n" V 8012 5350 50  0000 C CNN
F 2 "Capacitor_THT:C_Disc_D4.3mm_W1.9mm_P5.00mm" H 8150 5350 50  0001 C CNN
F 3 "~" H 8150 5350 50  0001 C CNN
	1    8150 5350
	0    1    1    0   
$EndComp
$Comp
L Device:R R11
U 1 1 5F64A4F6
P 7800 5350
F 0 "R11" V 7593 5350 50  0000 C CNN
F 1 "100k" V 7684 5350 50  0000 C CNN
F 2 "Resistor_THT:R_Axial_DIN0204_L3.6mm_D1.6mm_P5.08mm_Horizontal" V 7730 5350 50  0001 C CNN
F 3 "~" H 7800 5350 50  0001 C CNN
	1    7800 5350
	0    1    1    0   
$EndComp
Wire Wire Line
	7950 5350 8050 5350
$Comp
L Device:R R12
U 1 1 5F64A4FE
P 8400 5000
F 0 "R12" H 8470 5046 50  0000 L CNN
F 1 "6.8k" H 8470 4955 50  0000 L CNN
F 2 "Resistor_THT:R_Axial_DIN0204_L3.6mm_D1.6mm_P5.08mm_Horizontal" V 8330 5000 50  0001 C CNN
F 3 "~" H 8400 5000 50  0001 C CNN
	1    8400 5000
	1    0    0    -1  
$EndComp
$Comp
L Device:R R13
U 1 1 5F64A504
P 8400 5800
F 0 "R13" H 8470 5846 50  0000 L CNN
F 1 "1k" H 8470 5755 50  0000 L CNN
F 2 "Resistor_THT:R_Axial_DIN0204_L3.6mm_D1.6mm_P5.08mm_Horizontal" V 8330 5800 50  0001 C CNN
F 3 "~" H 8400 5800 50  0001 C CNN
	1    8400 5800
	1    0    0    -1  
$EndComp
$Comp
L power:GND #PWR0109
U 1 1 5F64A50A
P 8400 5950
F 0 "#PWR0109" H 8400 5700 50  0001 C CNN
F 1 "GND" H 8405 5777 50  0000 C CNN
F 2 "" H 8400 5950 50  0001 C CNN
F 3 "" H 8400 5950 50  0001 C CNN
	1    8400 5950
	1    0    0    -1  
$EndComp
Wire Wire Line
	8400 5150 8400 5350
Wire Wire Line
	8400 5350 8250 5350
Wire Wire Line
	8400 5650 8400 5600
Connection ~ 8400 5350
Connection ~ 8400 5600
Wire Wire Line
	8400 5600 8400 5350
Wire Wire Line
	7300 5600 8400 5600
Wire Wire Line
	7200 4650 7200 4200
Wire Wire Line
	8400 4850 8400 4200
Connection ~ 7200 5350
Wire Wire Line
	6800 5350 7200 5350
Wire Wire Line
	6800 5150 7200 5150
$Comp
L Device:D_Schottky D5
U 1 1 5F673C25
P 7500 2200
F 0 "D5" H 7500 1983 50  0000 C CNN
F 1 "MBR10100" H 7500 2074 50  0000 C CNN
F 2 "Package_TO_SOT_THT:TO-220-2_Vertical" H 7500 2200 50  0001 C CNN
F 3 "~" H 7500 2200 50  0001 C CNN
	1    7500 2200
	-1   0    0    1   
$EndComp
Wire Wire Line
	7350 2200 7050 2200
$Comp
L Device:C_Small C10
U 1 1 5F677B83
P 7600 1800
F 0 "C10" V 7371 1800 50  0000 C CNN
F 1 "1n" V 7462 1800 50  0000 C CNN
F 2 "Capacitor_SMD:C_1206_3216Metric_Pad1.42x1.75mm_HandSolder" H 7600 1800 50  0001 C CNN
F 3 "~" H 7600 1800 50  0001 C CNN
	1    7600 1800
	0    1    1    0   
$EndComp
$Comp
L Device:R R10
U 1 1 5F678D1D
P 7350 1800
F 0 "R10" V 7143 1800 50  0000 C CNN
F 1 "22" V 7234 1800 50  0000 C CNN
F 2 "Resistor_SMD:R_1206_3216Metric_Pad1.42x1.75mm_HandSolder" V 7280 1800 50  0001 C CNN
F 3 "~" H 7350 1800 50  0001 C CNN
	1    7350 1800
	0    1    1    0   
$EndComp
Wire Wire Line
	7200 1800 7050 1800
Wire Wire Line
	7050 1800 7050 2200
Connection ~ 7050 2200
Wire Wire Line
	7050 2200 6950 2200
Wire Wire Line
	7650 2200 7900 2200
Wire Wire Line
	7700 1800 7900 1800
Wire Wire Line
	7900 1800 7900 2200
Connection ~ 7900 2200
$Comp
L Device:CP C12
U 1 1 5F682F27
P 8250 2500
F 0 "C12" H 8368 2546 50  0000 L CNN
F 1 "1000u/25V" H 8368 2455 50  0000 L CNN
F 2 "Capacitor_THT:CP_Radial_D10.0mm_P5.00mm" H 8288 2350 50  0001 C CNN
F 3 "~" H 8250 2500 50  0001 C CNN
	1    8250 2500
	1    0    0    -1  
$EndComp
Wire Wire Line
	8250 2350 8250 2200
Wire Wire Line
	7900 2200 8250 2200
$Comp
L pspice:INDUCTOR L1
U 1 1 5F685712
P 8750 2200
F 0 "L1" H 8750 2415 50  0000 C CNN
F 1 "INDUCTOR" H 8750 2324 50  0000 C CNN
F 2 "Inductor_THT:L_Toroid_Vertical_L16.5mm_W11.4mm_P7.62mm_Pulse_KM-2" H 8750 2200 50  0001 C CNN
F 3 "~" H 8750 2200 50  0001 C CNN
	1    8750 2200
	1    0    0    -1  
$EndComp
$Comp
L Device:CP C13
U 1 1 5F685DD6
P 9200 2500
F 0 "C13" H 9318 2546 50  0000 L CNN
F 1 "1000u/25V" H 9318 2455 50  0000 L CNN
F 2 "Capacitor_THT:CP_Radial_D10.0mm_P5.00mm" H 9238 2350 50  0001 C CNN
F 3 "~" H 9200 2500 50  0001 C CNN
	1    9200 2500
	1    0    0    -1  
$EndComp
Wire Wire Line
	9200 2350 9200 2200
Wire Wire Line
	9200 2200 9000 2200
Wire Wire Line
	8500 2200 8250 2200
Connection ~ 8250 2200
$Comp
L power:GND #PWR0110
U 1 1 5F68AB63
P 8250 2650
F 0 "#PWR0110" H 8250 2400 50  0001 C CNN
F 1 "GND" H 8255 2477 50  0000 C CNN
F 2 "" H 8250 2650 50  0001 C CNN
F 3 "" H 8250 2650 50  0001 C CNN
	1    8250 2650
	1    0    0    -1  
$EndComp
$Comp
L power:GND #PWR0111
U 1 1 5F68ADA7
P 9200 2650
F 0 "#PWR0111" H 9200 2400 50  0001 C CNN
F 1 "GND" H 9205 2477 50  0000 C CNN
F 2 "" H 9200 2650 50  0001 C CNN
F 3 "" H 9200 2650 50  0001 C CNN
	1    9200 2650
	1    0    0    -1  
$EndComp
$Comp
L Connector:Conn_01x02_Male J2
U 1 1 5F68BC61
P 10250 2300
F 0 "J2" H 10222 2182 50  0000 R CNN
F 1 "OUT" H 10222 2273 50  0000 R CNN
F 2 "TerminalBlock:TerminalBlock_bornier-2_P5.08mm" H 10250 2300 50  0001 C CNN
F 3 "~" H 10250 2300 50  0001 C CNN
	1    10250 2300
	-1   0    0    1   
$EndComp
Wire Wire Line
	10050 2200 9850 2200
Connection ~ 9200 2200
$Comp
L power:GND #PWR0112
U 1 1 5F68E8A6
P 10050 2300
F 0 "#PWR0112" H 10050 2050 50  0001 C CNN
F 1 "GND" H 10055 2127 50  0000 C CNN
F 2 "" H 10050 2300 50  0001 C CNN
F 3 "" H 10050 2300 50  0001 C CNN
	1    10050 2300
	1    0    0    -1  
$EndComp
Wire Wire Line
	9850 2200 9850 2900
Wire Wire Line
	9850 4200 8400 4200
Connection ~ 9850 2200
Wire Wire Line
	9850 2200 9200 2200
Connection ~ 8400 4200
Wire Wire Line
	7200 5350 7650 5350
Wire Wire Line
	7200 4200 8400 4200
$Comp
L Device:D_Bridge_+AA- D1
U 1 1 5F69885C
P 2800 1400
F 0 "D1" H 3050 1600 50  0000 L CNN
F 1 "D_Bridge_+AA-" H 3144 1355 50  0001 L CNN
F 2 "Diode_THT:Diode_Bridge_19.0x3.5x10.0mm_P5.0mm" H 2800 1400 50  0001 C CNN
F 3 "~" H 2800 1400 50  0001 C CNN
	1    2800 1400
	1    0    0    -1  
$EndComp
Wire Wire Line
	3100 1400 3450 1400
Connection ~ 3450 1400
Wire Wire Line
	3450 1400 4100 1400
$Comp
L power:GNDA #PWR0113
U 1 1 5F69C0CF
P 2400 1450
F 0 "#PWR0113" H 2400 1200 50  0001 C CNN
F 1 "GNDA" H 2405 1277 50  0000 C CNN
F 2 "" H 2400 1450 50  0001 C CNN
F 3 "" H 2400 1450 50  0001 C CNN
	1    2400 1450
	1    0    0    -1  
$EndComp
Wire Wire Line
	2400 1450 2400 1400
Wire Wire Line
	2400 1400 2500 1400
$Comp
L Device:C C2
U 1 1 5F69F038
P 1950 1400
F 0 "C2" H 2065 1446 50  0000 L CNN
F 1 "0.033" H 2065 1355 50  0000 L CNN
F 2 "Capacitor_THT:C_Rect_L16.5mm_W4.7mm_P15.00mm_MKT" H 1988 1250 50  0001 C CNN
F 3 "~" H 1950 1400 50  0001 C CNN
	1    1950 1400
	1    0    0    -1  
$EndComp
Wire Wire Line
	1950 1250 1950 1000
Wire Wire Line
	1950 1000 2800 1000
Wire Wire Line
	2800 1000 2800 1100
Wire Wire Line
	1950 1550 1950 1850
Wire Wire Line
	1950 1850 2800 1850
Wire Wire Line
	2800 1850 2800 1700
Wire Wire Line
	1700 1000 1950 1000
Connection ~ 1950 1000
Connection ~ 1950 1850
$Comp
L Device:Fuse F1
U 1 1 5F6B3E82
P 1550 1000
F 0 "F1" V 1353 1000 50  0000 C CNN
F 1 "Fuse" V 1444 1000 50  0000 C CNN
F 2 "Capacitor_THT:C_Rect_L7.0mm_W2.0mm_P5.00mm" V 1480 1000 50  0001 C CNN
F 3 "~" H 1550 1000 50  0001 C CNN
	1    1550 1000
	0    1    1    0   
$EndComp
$Comp
L Connector:Conn_01x02_Male J1
U 1 1 5F6C32DC
P 950 1300
F 0 "J1" H 1058 1481 50  0000 C CNN
F 1 "IN" H 1058 1390 50  0000 C CNN
F 2 "TerminalBlock:TerminalBlock_bornier-2_P5.08mm" H 950 1300 50  0001 C CNN
F 3 "~" H 950 1300 50  0001 C CNN
	1    950  1300
	1    0    0    -1  
$EndComp
Wire Wire Line
	1150 1300 1250 1300
Wire Wire Line
	1250 1300 1250 1000
Wire Wire Line
	1250 1000 1400 1000
Wire Wire Line
	1150 1400 1250 1400
Wire Wire Line
	1250 1400 1250 1850
$Comp
L Device:D_Zener D6
U 1 1 5F6FB375
P 5250 1650
F 0 "D6" V 5296 1570 50  0000 R CNN
F 1 "TVS" V 5205 1570 50  0000 R CNN
F 2 "Diode_THT:D_DO-201_P5.08mm_Vertical_KathodeUp" H 5250 1650 50  0001 C CNN
F 3 "~" H 5250 1650 50  0001 C CNN
	1    5250 1650
	0    -1   -1   0   
$EndComp
Wire Wire Line
	5250 1800 5250 1950
Wire Wire Line
	5250 1950 5550 1950
Connection ~ 5550 1950
Wire Wire Line
	5250 1500 5250 1400
Connection ~ 5250 1400
Wire Wire Line
	5250 1400 5550 1400
Wire Wire Line
	1250 1850 1950 1850
$Comp
L Device:LED D7
U 1 1 5F731E4A
P 10100 2900
F 0 "D7" H 10093 2645 50  0000 C CNN
F 1 "LED" H 10093 2736 50  0000 C CNN
F 2 "LED_THT:LED_D3.0mm" H 10100 2900 50  0001 C CNN
F 3 "~" H 10100 2900 50  0001 C CNN
	1    10100 2900
	-1   0    0    1   
$EndComp
$Comp
L Device:R R14
U 1 1 5F732D0F
P 10500 2900
F 0 "R14" V 10293 2900 50  0000 C CNN
F 1 "1k" V 10384 2900 50  0000 C CNN
F 2 "Resistor_THT:R_Axial_DIN0204_L3.6mm_D1.6mm_P2.54mm_Vertical" V 10430 2900 50  0001 C CNN
F 3 "~" H 10500 2900 50  0001 C CNN
	1    10500 2900
	0    1    1    0   
$EndComp
$Comp
L power:GND #PWR0114
U 1 1 5F733423
P 10750 3000
F 0 "#PWR0114" H 10750 2750 50  0001 C CNN
F 1 "GND" H 10755 2827 50  0000 C CNN
F 2 "" H 10750 3000 50  0001 C CNN
F 3 "" H 10750 3000 50  0001 C CNN
	1    10750 3000
	1    0    0    -1  
$EndComp
Wire Wire Line
	10750 3000 10750 2900
Wire Wire Line
	10750 2900 10650 2900
Wire Wire Line
	10350 2900 10250 2900
Wire Wire Line
	9950 2900 9850 2900
Connection ~ 9850 2900
Wire Wire Line
	9850 2900 9850 4200
$Comp
L power:GND #PWR0104
U 1 1 5F768E95
P 7050 2900
F 0 "#PWR0104" H 7050 2650 50  0001 C CNN
F 1 "GND" H 7055 2727 50  0000 C CNN
F 2 "" H 7050 2900 50  0001 C CNN
F 3 "" H 7050 2900 50  0001 C CNN
	1    7050 2900
	1    0    0    -1  
$EndComp
Wire Wire Line
	6950 2700 7050 2700
Wire Wire Line
	7050 2700 7050 2800
Wire Wire Line
	6950 2800 7050 2800
Connection ~ 7050 2800
Wire Wire Line
	7050 2800 7050 2900
Wire Wire Line
	6950 2300 7050 2300
Wire Wire Line
	7050 2300 7050 2200
$Comp
L My_Library:SG6841 U1
U 1 1 5F69E6FF
P 3750 3900
F 0 "U1" H 3725 4465 50  0000 C CNN
F 1 "SG6841" H 3725 4374 50  0000 C CNN
F 2 "Package_DIP:DIP-8_W7.62mm" H 3750 3400 50  0001 C CNN
F 3 "" H 3750 3400 50  0001 C CNN
	1    3750 3900
	1    0    0    -1  
$EndComp
Wire Wire Line
	2350 3650 2350 4300
Wire Wire Line
	4100 1850 4100 2350
Wire Wire Line
	4100 2350 3050 2350
Wire Wire Line
	3050 2350 3050 3800
Wire Wire Line
	3050 3800 3250 3800
$Comp
L Device:Thermistor TH1
U 1 1 5F6A8184
P 4450 5500
F 0 "TH1" H 4555 5546 50  0000 L CNN
F 1 "Thermistor" H 4555 5455 50  0000 L CNN
F 2 "Capacitor_THT:C_Disc_D4.7mm_W2.5mm_P5.00mm" H 4450 5500 50  0001 C CNN
F 3 "~" H 4450 5500 50  0001 C CNN
	1    4450 5500
	1    0    0    -1  
$EndComp
$Comp
L power:GNDA #PWR0115
U 1 1 5F6A8B63
P 4450 5700
F 0 "#PWR0115" H 4450 5450 50  0001 C CNN
F 1 "GNDA" H 4455 5527 50  0000 C CNN
F 2 "" H 4450 5700 50  0001 C CNN
F 3 "" H 4450 5700 50  0001 C CNN
	1    4450 5700
	1    0    0    -1  
$EndComp
Wire Wire Line
	4200 4100 4850 4100
Wire Wire Line
	3750 4700 4850 4700
Wire Wire Line
	4850 4300 4850 4100
Connection ~ 4850 4100
Wire Wire Line
	4850 4100 4950 4100
Wire Wire Line
	4850 4500 4850 4700
Connection ~ 4850 4700
Wire Wire Line
	4850 4700 5350 4700
Wire Wire Line
	4450 5300 4450 3900
Wire Wire Line
	4450 3900 4200 3900
Wire Wire Line
	5700 5150 3100 5150
Wire Wire Line
	6200 5150 5700 5150
Connection ~ 5700 5150
Wire Wire Line
	5700 5200 5700 5150
$Comp
L Device:C_Small C8
U 1 1 5F664F73
P 5700 5300
F 0 "C8" H 5792 5346 50  0000 L CNN
F 1 "1n" H 5792 5255 50  0000 L CNN
F 2 "Capacitor_THT:C_Disc_D4.3mm_W1.9mm_P5.00mm" H 5700 5300 50  0001 C CNN
F 3 "~" H 5700 5300 50  0001 C CNN
	1    5700 5300
	1    0    0    -1  
$EndComp
$Comp
L power:GNDA #PWR0105
U 1 1 5F6639B2
P 5700 5400
F 0 "#PWR0105" H 5700 5150 50  0001 C CNN
F 1 "GNDA" H 5705 5227 50  0000 C CNN
F 2 "" H 5700 5400 50  0001 C CNN
F 3 "" H 5700 5400 50  0001 C CNN
	1    5700 5400
	1    0    0    -1  
$EndComp
Wire Wire Line
	2350 2600 5050 2600
Text Notes 2800 4200 0    50   ~ 0
51kHz
Text Notes 6550 1600 0    50   ~ 0
170-8-10
$EndSCHEMATC
