EESchema Schematic File Version 4
EELAYER 30 0
EELAYER END
$Descr A4 11693 8268
encoding utf-8
Sheet 3 3
Title ""
Date ""
Rev ""
Comp ""
Comment1 ""
Comment2 ""
Comment3 ""
Comment4 ""
$EndDescr
$Comp
L Device:R R?
U 1 1 5F64A4D9
P 4950 2950
F 0 "R?" H 5020 2996 50  0000 L CNN
F 1 "1k" H 5020 2905 50  0000 L CNN
F 2 "Resistor_THT:R_Axial_DIN0204_L3.6mm_D1.6mm_P7.62mm_Horizontal" V 4880 2950 50  0001 C CNN
F 3 "~" H 4950 2950 50  0001 C CNN
	1    4950 2950
	1    0    0    -1  
$EndComp
$Comp
L Reference_Voltage:TL431LP U?
U 1 1 5F64A4DF
P 4950 3750
F 0 "U?" V 4904 3680 50  0000 R CNN
F 1 "TL431LP" V 4995 3680 50  0000 R CNN
F 2 "Package_TO_SOT_THT:TO-92_Inline_Wide" H 4950 3600 50  0001 C CIN
F 3 "http://www.ti.com/lit/ds/symlink/tl431.pdf" H 4950 3750 50  0001 C CIN
	1    4950 3750
	0    1    -1   0   
$EndComp
Wire Wire Line
	4800 3300 4950 3300
Wire Wire Line
	4950 3300 4950 3100
Wire Wire Line
	4950 3650 4950 3500
$Comp
L power:GND #PWR?
U 1 1 5F64A4E9
P 4950 3900
F 0 "#PWR?" H 4950 3650 50  0001 C CNN
F 1 "GND" H 4955 3727 50  0000 C CNN
F 2 "" H 4950 3900 50  0001 C CNN
F 3 "" H 4950 3900 50  0001 C CNN
	1    4950 3900
	1    0    0    -1  
$EndComp
Wire Wire Line
	4950 3900 4950 3850
$Comp
L Device:C_Small C?
U 1 1 5F64A4F0
P 5900 3500
F 0 "C?" V 5671 3500 50  0000 C CNN
F 1 "10n" V 5762 3500 50  0000 C CNN
F 2 "Capacitor_THT:C_Disc_D4.3mm_W1.9mm_P5.00mm" H 5900 3500 50  0001 C CNN
F 3 "~" H 5900 3500 50  0001 C CNN
	1    5900 3500
	0    1    1    0   
$EndComp
$Comp
L Device:R R?
U 1 1 5F64A4F6
P 5550 3500
F 0 "R?" V 5343 3500 50  0000 C CNN
F 1 "100k" V 5434 3500 50  0000 C CNN
F 2 "Resistor_THT:R_Axial_DIN0204_L3.6mm_D1.6mm_P7.62mm_Horizontal" V 5480 3500 50  0001 C CNN
F 3 "~" H 5550 3500 50  0001 C CNN
	1    5550 3500
	0    1    1    0   
$EndComp
Wire Wire Line
	5700 3500 5800 3500
$Comp
L Device:R R?
U 1 1 5F64A4FE
P 6150 3150
F 0 "R?" H 6220 3196 50  0000 L CNN
F 1 "6.8k" H 6220 3105 50  0000 L CNN
F 2 "Resistor_THT:R_Axial_DIN0204_L3.6mm_D1.6mm_P7.62mm_Horizontal" V 6080 3150 50  0001 C CNN
F 3 "~" H 6150 3150 50  0001 C CNN
	1    6150 3150
	1    0    0    -1  
$EndComp
$Comp
L Device:R R?
U 1 1 5F64A504
P 6150 3950
F 0 "R?" H 6220 3996 50  0000 L CNN
F 1 "1k" H 6220 3905 50  0000 L CNN
F 2 "Resistor_SMD:R_1206_3216Metric_Pad1.42x1.75mm_HandSolder" V 6080 3950 50  0001 C CNN
F 3 "~" H 6150 3950 50  0001 C CNN
	1    6150 3950
	1    0    0    -1  
$EndComp
$Comp
L power:GND #PWR?
U 1 1 5F64A50A
P 6150 4100
F 0 "#PWR?" H 6150 3850 50  0001 C CNN
F 1 "GND" H 6155 3927 50  0000 C CNN
F 2 "" H 6150 4100 50  0001 C CNN
F 3 "" H 6150 4100 50  0001 C CNN
	1    6150 4100
	1    0    0    -1  
$EndComp
Wire Wire Line
	6150 3300 6150 3500
Wire Wire Line
	6150 3500 6000 3500
Wire Wire Line
	6150 3800 6150 3750
Connection ~ 6150 3500
Connection ~ 6150 3750
Wire Wire Line
	6150 3750 6150 3500
$Comp
L Device:R R?
U 1 1 5F64A516
P 5250 2950
F 0 "R?" H 5320 2996 50  0000 L CNN
F 1 "1k" H 5320 2905 50  0000 L CNN
F 2 "Resistor_THT:R_Axial_DIN0204_L3.6mm_D1.6mm_P7.62mm_Horizontal" V 5180 2950 50  0001 C CNN
F 3 "~" H 5250 2950 50  0001 C CNN
	1    5250 2950
	1    0    0    -1  
$EndComp
Wire Wire Line
	5250 3100 5250 3500
Wire Wire Line
	4950 3500 5250 3500
Wire Wire Line
	5400 3500 5250 3500
Connection ~ 5250 3500
Wire Wire Line
	5050 3750 6150 3750
Wire Wire Line
	4950 2800 4950 2350
Wire Wire Line
	5250 2800 5250 2350
Wire Wire Line
	6150 3000 6150 2350
Connection ~ 4950 3500
Wire Wire Line
	4950 3500 4800 3500
$EndSCHEMATC
